{
	"info": {
		"_postman_id": "21bb09dc-a42f-4a48-b168-3eeb52e8aaee",
		"name": "Activity 27",
		"schema": "https://schema.getpostman.com/json/collection/v2.1.0/collection.json"
	},
	"item": [
		{
			"name": "Get profile",
			"request": {
				"method": "GET",
				"header": [],
				"url": {
					"raw": "http://localhost:4000/profile",
					"protocol": "http",
					"host": [
						"localhost"
					],
					"port": "4000",
					"path": [
						"profile"
					]
				}
			},
			"response": []
		},
		{
			"name": "Post profile",
			"request": {
				"method": "POST",
				"header": [],
				"body": {
					"mode": "raw",
					"raw": "{\n    \"firstName\": \"Hary\",\n    \"lastName\": \"Random\",\n    \"mobileNo\": \"09192837491\",\n    \"email\": \"haryrandom@email.com\",\n    \"password\": \"345\"\n}",
					"options": {
						"raw": {
							"language": "json"
						}
					}
				},
				"url": {
					"raw": "http://localhost:4000/profile",
					"protocol": "http",
					"host": [
						"localhost"
					],
					"port": "4000",
					"path": [
						"profile"
					]
				}
			},
			"response": []
		}
	]
}